{
    "name": "env-onprem-ps",
    "application": "vwx-delivery",
    "type": "environment",
    "release": "none",
    "package": "archive",
    "package_path": "dist",
    "package_ext": "zip",
    "registry": "artifactory.vwx.spirent.com/misc-binaries/vwx-delivery",
    "version": "2.0.0",
    "build": 0
  }
  